lab1/voter_beh/voter_beh.sim/sim_1/behav/xsim/simulate.log
Vivado Simulator 2018.2
Time resolution is 1 ps
                   0a = 0, b = 0, c = 0, d = 0, e = 0, y = 0
                  10a = 0, b = 0, c = 0, d = 0, e = 1, y = 0
                  20a = 0, b = 0, c = 0, d = 1, e = 0, y = 0
                  30a = 0, b = 0, c = 0, d = 1, e = 1, y = 0
                  40a = 0, b = 0, c = 1, d = 0, e = 0, y = 0
                  50a = 0, b = 0, c = 1, d = 0, e = 1, y = 0
                  60a = 0, b = 0, c = 1, d = 1, e = 0, y = 0
                  70a = 0, b = 0, c = 1, d = 1, e = 1, y = 1
                  80a = 0, b = 1, c = 0, d = 0, e = 0, y = 0
                  90a = 0, b = 1, c = 0, d = 0, e = 1, y = 0
                 100a = 0, b = 1, c = 0, d = 1, e = 0, y = 0
                 110a = 0, b = 1, c = 0, d = 1, e = 1, y = 1
                 120a = 0, b = 1, c = 1, d = 0, e = 0, y = 0
                 130a = 0, b = 1, c = 1, d = 0, e = 1, y = 1
                 140a = 0, b = 1, c = 1, d = 1, e = 0, y = 1
                 150a = 0, b = 1, c = 1, d = 1, e = 1, y = 1
                 160a = 1, b = 0, c = 0, d = 0, e = 0, y = 0
                 170a = 1, b = 0, c = 0, d = 0, e = 1, y = 0
                 180a = 1, b = 0, c = 0, d = 1, e = 0, y = 0
                 190a = 1, b = 0, c = 0, d = 1, e = 1, y = 1
                 200a = 1, b = 0, c = 1, d = 0, e = 0, y = 0
                 210a = 1, b = 0, c = 1, d = 0, e = 1, y = 1
                 220a = 1, b = 0, c = 1, d = 1, e = 0, y = 1
                 230a = 1, b = 0, c = 1, d = 1, e = 1, y = 1
                 240a = 1, b = 1, c = 0, d = 0, e = 0, y = 0
                 250a = 1, b = 1, c = 0, d = 0, e = 1, y = 1
                 260a = 1, b = 1, c = 0, d = 1, e = 0, y = 1
                 270a = 1, b = 1, c = 0, d = 1, e = 1, y = 1
                 280a = 1, b = 1, c = 1, d = 0, e = 0, y = 1
                 290a = 1, b = 1, c = 1, d = 0, e = 1, y = 1
                 300a = 1, b = 1, c = 1, d = 1, e = 0, y = 1
                 310a = 1, b = 1, c = 1, d = 1, e = 1, y = 1
