lab-1/voter_ic/voter_ic.sim/sim_1/behav/xsim/simulate.log
Vivado Simulator 2018.2
Time resolution is 1 ps
                   0a = 0, b = 0, c = 0, d = 0, e = 0, y = 0
                  10a = 0, b = 0, c = 0, d = 0, e = 1, y = 0
                  20a = 0, b = 0, c = 0, d = 1, e = 0, y = 0
                  30a = 0, b = 0, c = 0, d = 1, e = 1, y = 1
                  40a = 0, b = 0, c = 1, d = 0, e = 0, y = 0
                  50a = 0, b = 0, c = 1, d = 0, e = 1, y = 0
                  60a = 0, b = 0, c = 1, d = 1, e = 0, y = 0
                  70a = 0, b = 0, c = 1, d = 1, e = 1, y = 1
                  80a = 0, b = 1, c = 0, d = 0, e = 0, y = 0
                  90a = 0, b = 1, c = 0, d = 0, e = 1, y = 0
                 100a = 0, b = 1, c = 0, d = 1, e = 0, y = 0
                 110a = 0, b = 1, c = 0, d = 1, e = 1, y = 1
                 120a = 0, b = 1, c = 1, d = 0, e = 0, y = 0
                 130a = 0, b = 1, c = 1, d = 0, e = 1, y = 0
                 140a = 0, b = 1, c = 1, d = 1, e = 0, y = 0
                 150a = 0, b = 1, c = 1, d = 1, e = 1, y = 1
                 160a = 1, b = 0, c = 0, d = 0, e = 0, y = 0
                 170a = 1, b = 0, c = 0, d = 0, e = 1, y = 0
                 180a = 1, b = 0, c = 0, d = 1, e = 0, y = 0
                 190a = 1, b = 0, c = 0, d = 1, e = 1, y = 1
                 200a = 1, b = 0, c = 1, d = 0, e = 0, y = 0
                 210a = 1, b = 0, c = 1, d = 0, e = 1, y = 0
                 220a = 1, b = 0, c = 1, d = 1, e = 0, y = 0
                 230a = 1, b = 0, c = 1, d = 1, e = 1, y = 1
                 240a = 1, b = 1, c = 0, d = 0, e = 0, y = 0
                 250a = 1, b = 1, c = 0, d = 0, e = 1, y = 0
                 260a = 1, b = 1, c = 0, d = 1, e = 0, y = 0
                 270a = 1, b = 1, c = 0, d = 1, e = 1, y = 1
                 280a = 1, b = 1, c = 1, d = 0, e = 0, y = 0
                 290a = 1, b = 1, c = 1, d = 0, e = 1, y = 0
                 300a = 1, b = 1, c = 1, d = 1, e = 0, y = 0
                 310a = 1, b = 1, c = 1, d = 1, e = 1, y = 1
